Economic Growth and Health System Factors in Global Child Mortality
…
# 3. View the Resulting List
# This will ONLY show you the countries and variables that "fail" the rule.
print(failing_variables_audit)

# A tibble: 84 × 4
   iso_code country                          Indicator   Missing_Percentage
   <chr>    <chr>                            <chr>                    <dbl>
 1 AGO      Angola                           wash_access                100
 2 ATG      Antigua and Barbuda              wash_access                100
 3 ARG      Argentina                        wash_access                100
 4 AUS      Australia                        wash_access                100
 5 BHS      Bahamas                          wash_access                100
 6 BRB      Barbados                         wash_access                100
 7 BLZ      Belize                           wash_access                100
 8 BEN      Benin                            wash_access                100
 9 BOL      Bolivia (Plurinational State of) wash_access                100
10 BWA      Botswana                         wash_access                100
# ℹ 74 more rows
…
